<svg width="24" height="24" viewBox="0 0 50 50" fill="none" xmlns="http://www.w3.org/2000/svg">
<path d="M5.55556 50C4.02778 50 2.72037 49.4565 1.63333 48.3694C0.546296 47.2824 0.00185185 45.9741 0 44.4444V5.55556C0 4.02778 0.544445 2.72037 1.63333 1.63333C2.72222 0.546296 4.02963 0.00185185 5.55556 0H25V5.55556H5.55556V44.4444H25V50H5.55556ZM36.1111 38.8889L32.2917 34.8611L39.375 27.7778H16.6667V22.2222H39.375L32.2917 15.1389L36.1111 11.1111L50 25L36.1111 38.8889Z" fill="#DC3131"/>
</svg>
